#120 - Abbruzzi

owner = A03
controller = A03
add_core = A03
culture = moon_elf
religion = regent_court
hre = no
base_tax = 4
base_production = 4
trade_goods = wool
base_manpower = 2
capital = ""
is_city = yes





