#261 - Halicz

owner = A32
controller = A32
add_core = A32
culture = moon_elf
religion = elven_forebears

hre = no

base_tax = 6
base_production = 8
base_manpower = 3

trade_goods = gems

capital = ""

is_city = yes
fort_15th = yes






