# No previous file for Deli
owner = F33
controller = F33
add_core = F33
culture = zanite
religion = bulwari_sun_cult

hre = no

base_tax = 3
base_production = 1
base_manpower = 2

trade_goods = wool

capital = ""

is_city = yes













add_permanent_province_modifier = {
	name = elven_minority_integrated_large
	duration = -1
}