#7 - Skaraborg | 

owner = A13
controller = A13
add_core = A13
add_core = A70
culture = bluefoot_halfling
religion = regent_court

hre = no

base_tax = 3
base_production = 4
base_manpower = 1

trade_goods = naval_supplies

capital = ""

is_city = yes







