cyranvar_1 = {
	slot = 1
	generic = no
	ai = yes
	has_country_shield = yes
	
	potential = {
		tag = I45
	}
	
	I45_cluster_1 = {
		icon = mission_have_manufactories
		ai = yes
		position = 2
		
		trigger = {
			deepwoods_cluster_1 = {
				type = all
				owned_by = ROOT
			}
			if = {
				limit = { ai = no }
				years_of_income = 1
				NOT = { num_of_loans = 1 }
				adm_power = 100
				dip_power = 100
				mil_power = 100
			}
			else = {
				years_of_income = 0.4
				adm_power = 50
				dip_power = 50
				mil_power = 50
			}
		}
		
		provinces_to_highlight = {
			province_group = deepwoods_cluster_1
		}
		
		effect = {
			if = {
				limit = { ai = no }
				add_years_of_income = -1
				add_adm_power = -100
				add_dip_power = -100
				add_mil_power = -100
			}
			else = {
				add_years_of_income = -0.4
				add_adm_power = -50
				add_dip_power = -50
				add_mil_power = -50
			}
			deepwoods_cluster_1 = {
				add_base_tax = 1
				add_base_production = 1
				add_base_manpower = 1
			}
			add_mercantilism = 4
		}
	}
	
	I45_cluster_2 = {
		icon = mission_colonial
		ai = yes
		position = 3
		
		trigger = {
			deepwoods_cluster_2 = {
				type = all
				owned_by = ROOT
			}
			if = {
				limit = { ai = no }
				years_of_income = 1
				NOT = { num_of_loans = 1 }
				adm_power = 100
				dip_power = 100
				mil_power = 100
			}
			else = {
				years_of_income = 0.4
				adm_power = 50
				dip_power = 50
				mil_power = 50
			}
		}
		
		provinces_to_highlight = {
			province_group = deepwoods_cluster_2
		}
		
		effect = {
			if = {
				limit = { ai = no }
				add_years_of_income = -1
				add_adm_power = -100
				add_dip_power = -100
				add_mil_power = -100
			}
			else = {
				add_years_of_income = -0.4
				add_adm_power = -50
				add_dip_power = -50
				add_mil_power = -50
			}
			deepwoods_cluster_2 = {
				add_base_tax = 1
				add_base_production = 1
				add_base_manpower = 1
			}
			add_mercantilism = 4
		}
	}
	
	I45_cluster_3 = {
		icon = mission_rb_the_bank_of_scotland
		ai = yes
		position = 4
		
		trigger = {
			deepwoods_cluster_3 = {
				type = all
				owned_by = ROOT
			}
			if = {
				limit = { ai = no }
				years_of_income = 1
				NOT = { num_of_loans = 1 }
				adm_power = 100
				dip_power = 100
				mil_power = 100
			}
			else = {
				years_of_income = 0.4
				adm_power = 50
				dip_power = 50
				mil_power = 50
			}
		}
		
		provinces_to_highlight = {
			province_group = deepwoods_cluster_3
		}
		
		effect = {
			if = {
				limit = { ai = no }
				add_years_of_income = -1
				add_adm_power = -100
				add_dip_power = -100
				add_mil_power = -100
			}
			else = {
				add_years_of_income = -0.4
				add_adm_power = -50
				add_dip_power = -50
				add_mil_power = -50
			}
			deepwoods_cluster_3 = {
				add_base_tax = 1
				add_base_production = 1
				add_base_manpower = 1
			}
			add_mercantilism = 4
		}
	}
	
	I45_cluster_4 = {
		icon = mission_convert_bengal
		ai = yes
		position = 5
		
		trigger = {
			deepwoods_cluster_4 = {
				type = all
				owned_by = ROOT
			}
			if = {
				limit = { ai = no }
				years_of_income = 1
				NOT = { num_of_loans = 1 }
				adm_power = 100
				dip_power = 100
				mil_power = 100
			}
			else = {
				years_of_income = 0.4
				adm_power = 50
				dip_power = 50
				mil_power = 50
			}
		}
		
		provinces_to_highlight = {
			province_group = deepwoods_cluster_4
		}
		
		effect = {
			if = {
				limit = { ai = no }
				add_years_of_income = -1
				add_adm_power = -100
				add_dip_power = -100
				add_mil_power = -100
			}
			else = {
				add_years_of_income = -0.4
				add_adm_power = -50
				add_dip_power = -50
				add_mil_power = -50
			}
			deepwoods_cluster_4 = {
				add_base_tax = 1
				add_base_production = 1
				add_base_manpower = 1
			}
			add_mercantilism = 4
		}
	}
	
	I45_cluster_5 = {
		icon = mission_assert_control_over_delhi
		ai = yes
		position = 6
		
		trigger = {
			deepwoods_cluster_5 = {
				type = all
				owned_by = ROOT
			}
			if = {
				limit = { ai = no }
				years_of_income = 1
				NOT = { num_of_loans = 1 }
				adm_power = 100
				dip_power = 100
				mil_power = 100
			}
			else = {
				years_of_income = 0.4
				adm_power = 50
				dip_power = 50
				mil_power = 50
			}
		}
		
		provinces_to_highlight = {
			province_group = deepwoods_cluster_5
		}
		
		effect = {
			if = {
				limit = { ai = no }
				add_years_of_income = -1
				add_adm_power = -100
				add_dip_power = -100
				add_mil_power = -100
			}
			else = {
				add_years_of_income = -0.4
				add_adm_power = -50
				add_dip_power = -50
				add_mil_power = -50
			}
			deepwoods_cluster_5 = {
				add_base_tax = 1
				add_base_production = 1
				add_base_manpower = 1
			}
			add_mercantilism = 4
		}
	}
	
	I45_cluster_6 = {
		icon = mission_found_the_city_of_agra
		ai = yes
		position = 7
		
		trigger = {
			deepwoods_cluster_6 = {
				type = all
				owned_by = ROOT
			}
			if = {
				limit = { ai = no }
				years_of_income = 1
				NOT = { num_of_loans = 1 }
				adm_power = 100
				dip_power = 100
				mil_power = 100
			}
			else = {
				years_of_income = 0.4
				adm_power = 50
				dip_power = 50
				mil_power = 50
			}
		}
		
		provinces_to_highlight = {
			province_group = deepwoods_cluster_6
		}
		
		effect = {
			if = {
				limit = { ai = no }
				add_years_of_income = -1
				add_adm_power = -100
				add_dip_power = -100
				add_mil_power = -100
			}
			else = {
				add_years_of_income = -0.4
				add_adm_power = -50
				add_dip_power = -50
				add_mil_power = -50
			}
			deepwoods_cluster_6 = {
				add_base_tax = 1
				add_base_production = 1
				add_base_manpower = 1
			}
			add_mercantilism = 4
		}
	}
	
	I45_cluster_7 = {
		icon = mission_invade_the_deccan_dlh
		ai = yes
		position = 8
		
		trigger = {
			deepwoods_cluster_7 = {
				type = all
				owned_by = ROOT
			}
			if = {
				limit = { ai = no }
				years_of_income = 1
				NOT = { num_of_loans = 1 }
				adm_power = 100
				dip_power = 100
				mil_power = 100
			}
			else = {
				years_of_income = 0.4
				adm_power = 50
				dip_power = 50
				mil_power = 50
			}
		}
		
		provinces_to_highlight = {
			province_group = deepwoods_cluster_7
		}
		
		effect = {
			if = {
				limit = { ai = no }
				add_years_of_income = -1
				add_adm_power = -100
				add_dip_power = -100
				add_mil_power = -100
			}
			else = {
				add_years_of_income = -0.4
				add_adm_power = -50
				add_dip_power = -50
				add_mil_power = -50
			}
			deepwoods_cluster_7 = {
				add_base_tax = 1
				add_base_production = 1
				add_base_manpower = 1
			}
			add_mercantilism = 4
		}
	}
	
	I45_cluster_8 = {
		icon = mission_junnagadh_fort
		ai = yes
		position = 9
		
		trigger = {
			deepwoods_cluster_8 = {
				type = all
				owned_by = ROOT
			}
			if = {
				limit = { ai = no }
				years_of_income = 1
				NOT = { num_of_loans = 1 }
				adm_power = 100
				dip_power = 100
				mil_power = 100
			}
			else = {
				years_of_income = 0.4
				adm_power = 50
				dip_power = 50
				mil_power = 50
			}
		}
		
		provinces_to_highlight = {
			province_group = deepwoods_cluster_8
		}
		
		effect = {
			if = {
				limit = { ai = no }
				add_years_of_income = -1
				add_adm_power = -100
				add_dip_power = -100
				add_mil_power = -100
			}
			else = {
				add_years_of_income = -0.4
				add_adm_power = -50
				add_dip_power = -50
				add_mil_power = -50
			}
			deepwoods_cluster_8 = {
				add_base_tax = 1
				add_base_production = 1
				add_base_manpower = 1
			}
			add_mercantilism = 4
		}
	}
	
	I45_cluster_9 = {
		icon = mission_rajputana_frontier
		ai = yes
		position = 10
		
		trigger = {
			deepwoods_cluster_9 = {
				type = all
				owned_by = ROOT
			}
			if = {
				limit = { ai = no }
				years_of_income = 1
				NOT = { num_of_loans = 1 }
				adm_power = 100
				dip_power = 100
				mil_power = 100
			}
			else = {
				years_of_income = 0.4
				adm_power = 50
				dip_power = 50
				mil_power = 50
			}
		}
		
		provinces_to_highlight = {
			province_group = deepwoods_cluster_9
		}
		
		effect = {
			if = {
				limit = { ai = no }
				add_years_of_income = -1
				add_adm_power = -100
				add_dip_power = -100
				add_mil_power = -100
			}
			else = {
				add_years_of_income = -0.4
				add_adm_power = -50
				add_dip_power = -50
				add_mil_power = -50
			}
			deepwoods_cluster_9 = {
				add_base_tax = 1
				add_base_production = 1
				add_base_manpower = 1
			}
			add_mercantilism = 4
		}
	}
}


cyranvar_2 = {
	slot = 2
	generic = no
	ai = yes
	has_country_shield = yes
	
	potential = {
		tag = I45
	}
	
	I45_securize_the_border = {
		icon = mission_el_badi_palace
		ai = yes
		position = 2
		
		required_missions = {
			I45_demand_the_oak_oath
		}
		
		trigger = {
			deepwoods_outward_gladeway = {
				type = all
				owned_by = ROOT
			}
		}
		
		provinces_to_highlight = {
			province_group = deepwoods_outward_gladeway
			NOT = { owned_by = ROOT }
		}
		
		effect = {
			add_stability = 1
			add_mil_power = 100
		}
	}
	
	I45_the_oak_guard = {
		icon = mission_wine_monopolies
		ai = yes
		position = 3
		
		required_missions = {
			I45_securize_the_border
		}
		
		trigger = {
			deepwoods_outward_gladeway = {
				type = all
				fort_level = 1
			}
			mil_power = 100
		}
		
		provinces_to_highlight = {
			province_group = deepwoods_outward_gladeway
		}
		
		effect = {
			add_stability = 1
			add_mil_power = -100
			deepwoods_outward_gladeway = {
				add_permanent_province_modifier = {
					name = cyranvar_the_oak_guard
					duration = -1
				}
			}
		}
	}
	
	I45_cyranvar_renaissance = {
		icon = mission_mediterranean_islands
		ai = yes
		position = 4
		
		required_missions = {
			I45_a_capital_city
		}
		
		trigger = {
			mil_power = 150
			adm_power = 150
			dip_power = 150
		}
		
		effect = {
			add_prestige = 10
			add_mil_power = -150
			add_adm_power = -150
			add_dip_power = -150
			add_country_modifier = {
				name = cyranvar_renaissance
				duration = 21900
			}
		}
	}
	
	#Isolationist path
	I45_develop_infrastructure = {
		icon = mission_early_game_buildings
		ai = yes
		position = 6
		
		required_missions = {
			I45_toward_the_future
		}
		
		trigger = {
			custom_trigger_tooltip = {
				tooltip = cyranvar_isolationist_path_tooltip
				has_country_flag = cyranvar_isolationist_path
			}
			adm_power = 100
		}
		
		effect = {
			add_adm_power = -100
			add_country_modifier = {
				name = cyranvar_develop_infrastructure
				duration = 18250
			}
			capital_scope = {
				area = {
					add_base_manpower = 1
					add_base_tax = 1
				}
				if = {
					limit = { NOT = { has_building = university } }
					add_building_construction = {
						building = university
						speed = 2
						cost = 0.5
					}
				}
				else = {
					add_base_manpower = 1
					add_base_production = 1
					add_base_tax = 1
				}
			}
		}
	}
	
	I45_promote_education = {
		icon = mission_early_modern_university
		ai = yes
		position = 7
		
		required_missions = {
			I45_develop_infrastructure
		}
		
		trigger = {
			adm_power = 200
			capital_scope = { has_building = university }
		}
		
		effect = {
			add_adm_power = -200
			add_prestige = 10
			add_country_modifier = {
				name = cyranvar_advisor
				duration = -1
			}
		}
	}
	
	I45_only_the_best = {
		icon = mission_have_two_subjects
		ai = yes
		position = 8
		
		required_missions = {
			I45_promote_education
			I45_remember_the_fallen
		}
		
		trigger = {
			mil_power = 200
			if = {
				limit = { ai = no }
				has_global_modifier_value = {
					which = discipline
					value = 0.25
				}
			}
		}
		
		effect = {
			add_mil_power = -200
			add_country_modifier = {
				name = cyranvar_only_the_best
				duration = -1
			}
		}
	}
	
	I45_a_safe_country = {
		icon = mission_advance_to_the_dnieper
		ai = yes
		position = 9
		
		required_missions = {
			I45_only_the_best
		}
		
		trigger = {
			if = {
				limit = { ai = no }
				army_size_percentage = 0.9
			}
		}
		
		effect = {
			add_legitimacy = 20
			custom_tooltip = cyranvar_a_safe_country_tooltip
			hidden_effect = { set_country_flag = a_safe_country }
		}
	}
	
	I45_the_model_elf = {
		icon = mission_restore_kiev
		ai = yes
		position = 10
		
		required_missions = {
			I45_a_safe_country
			I45_silvar_ishu
		}
		
		trigger = {
			OR = {
				AND = {
					adm = 6
					dip = 6
					mil = 6
				}
				AND = {
					adm_power = 500
					dip_power = 500
					mil_power = 500
				}
			}
		}
		
		effect = {
			if = {
				limit = { 
					NOT = { 
						adm = 6 
						mil = 6 
						dip = 6 
					}
				}
				add_adm_power = -500
				add_dip_power = -500
				add_mil_power = -500
			}
			add_prestige = 25
			add_country_modifier = {
				name = cyranvar_the_model_elf
				duration = -1
			}
		}
	}
}


cyranvar_3 = {
	slot = 3
	generic = no
	ai = yes
	has_country_shield = yes
	
	potential = {
		tag = I45
	}
	
	I45_demand_the_oak_oath = {
		icon = mission_unite_the_princes
		ai = yes
		position = 1
		
		trigger = {
			legitimacy = 50
			dip_power = 200
		}
		
		effect = {
			add_dip_power = -200
			every_known_country = {
				limit = { primary_culture = wood_elf capital_scope = { superregion = deepwoods_superregion } NOT = { tag = I45 } NOT = { vassal_of = ROOT } NOT = { junior_union_with = ROOT } }
				country_event = { id = cyranvar.4 days = 20 random = 10 }
			}
		}
	}
	
	I45_a_capital_city = {
		icon = mission_conquer_novgorod
		ai = yes
		position = 3
		
		required_missions = {
			I45_demand_the_oak_oath
		}
		
		trigger = {
			if = {
				limit = { ai = no }
				capital_scope = {
					development = 20
				}
			}
			else = {
				always = yes
			}
		}
		
		effect = {
			capital_scope = {
				if = {
					limit = { province_has_center_of_trade_of_level = 3 }
					add_base_manpower = 3
					add_base_production = 3
					add_base_tax = 3
				}
				else_if = {
					limit = { province_has_center_of_trade_of_level = 1 }
					add_center_of_trade_level = 1
				}
				else = {
					center_of_trade = 1
				}
			}
		}
	}
	
	I45_toward_the_future = {
		icon = mission_extent_yasak_to_the_east
		ai = yes
		position = 5
		
		required_missions = {
			I45_a_capital_city
			I45_a_high_king
		}
		
		trigger = {
			adm_power = 100
			mil_power = 100
			dip_power = 100
			if = {
				limit = { ai = no }
				prestige = 50
				legitimacy = 95
			}
		}
		
		effect = {
			country_event = { id = cyranvar.3 }
		}
	}
	
	I45_remember_the_fallen = { #They died for ou well-being
		icon = mission_rb_conquer_the_highlands
		ai = yes
		position = 7
		
		required_missions = {
			I45_develop_infrastructure
		}
		
		trigger = {
			total_development = 550
		}
		
		effect = {
			add_stability = 1
			add_army_tradition = 15
		}
	}
	
	I45_economic_boom = {
		icon = mission_rb_scottish_the_darien_scheme
		ai = yes
		position = 8
		
		required_missions = {
			I45_centralize_money_printing
		}
		
		trigger = {
			if = {
				limit = { ai = no }
				monthly_income = 80
			}
			else = {
				monthly_income = 50
			}
		}
		
		effect = {
			add_stability = 1
			add_country_modifier = {
				name = cyranvar_economic_boom
				duration = 9125
			}
		}
	}
	
	I45_silvar_ishu = {
		icon = mission_clear_the_delta
		ai = yes
		position = 9
		
		required_missions = {
			I45_only_the_best
		}
		
		trigger = {
			if = {
				limit = { ai = no }
				NOT = { average_unrest = 0 }
				religious_unity = 1
				stability = 3
			}
			else = {
				always = yes
			}
		}
		
		effect = {
			custom_tooltip = silvar_ishu_tooltip
			hidden_effect = { set_country_flag = silvar_ishu }
		}
	}
	
	I45_craft_the_meweri_scepter = {
		icon = mission_rb_trinity_college_dublin
		ai = yes
		position = 10
		
		required_missions = {
			I45_expert_artisan
		}
		
		trigger = {
			years_of_income = 0.5
			adm_power = 200
		}
		
		effect = {
			add_years_of_income = -0.5
			add_adm_power = -200
			custom_tooltip = meweri_scepter_tooltip
			hidden_effect = { set_country_flag = meweri_scepter }
		}
	}
	
	I45_under_the_canopy = {
		icon = mission_conquer_bengal_dlh
		ai = yes
		position = 11
		
		trigger = {
			prestige = 90
			total_development = 800
			OR = {
				mission_completed = I45_the_cosmopolitan_elf
				mission_completed = I45_the_model_elf
			}
		}
		
		effect = {
			add_country_modifier = {
				name = cyranvar_under_the_canopy
				duration = -1
			}
		}
	}
}

cyranvar_4 = {
	slot = 4
	generic = no
	ai = yes
	has_country_shield = yes
	
	potential = {
		tag = I45
	}
	
	I45_toward_unification = {
		icon = mission_subdue_the_afghans
		ai = yes
		position = 2
		
		required_missions = {
			I45_demand_the_oak_oath
		}
		
		provinces_to_highlight = {
			superregion = deepwoods_superregion
			
			NOT = { country_or_vassal_holds = ROOT }
		}
		
		trigger = {
			num_of_owned_provinces_with = {
				value = 40
				superregion = deepwoods_superregion
			}
		}
		
		effect = {
			add_prestige = 5
			add_dip_power = 75
			add_mil_power = 75
		}
	}
	
	I45_a_united_deepwoods = {
		icon = mission_found_the_city_of_agra
		ai = yes
		position = 2
		
		required_missions = {
			I45_toward_unification
		}
		
		provinces_to_highlight = {
			superregion = deepwoods_superregion
			
			NOT = { country_or_vassal_holds = ROOT }
		}
		
		trigger = {
			num_of_owned_provinces_with = {
				value = 60
				superregion = deepwoods_superregion
			}
		}
		
		effect = {
			add_prestige = 10
			add_dip_power = 100
			add_mil_power = 100
		}
	}
	
	I45_a_high_king = {
		icon = mission_monarch_in_throne_room
		ai = yes
		position = 3
		
		required_missions = {
			I45_a_united_deepwoods
			I45_a_capital_city
		}
		
		trigger = {
			if = {
				limit = { ai = no }
				legitimacy = 90
				stability = 3
			}
			else = {
				legitimacy = 75
			}
		}
		
		effect = {
			if = {
				limit = { ai = no }
				add_stability = -1
			}
			hidden_effect = { set_country_flag = oak_monarchy_reform }
			add_government_reform = oak_monarchy_reform
		}
	}
	
	I45_the_keys_to_rule = {
		icon = mission_noble_council
		ai = yes
		position = 4
		
		required_missions = {
			I45_a_high_king
		}
		
		trigger = {
			OR = {
				current_age = age_of_absolutism 
				current_age = age_of_revolutions 
			}
			has_reform = oak_monarchy_reform
		}
		
		effect = {
			country_event = { id = cyranvar.2 }
		}
	}
	
	#Open Border Path
	I45_develop_artisanat = {
		icon = mission_scholar_officials
		ai = yes
		position = 5
		
		required_missions = {
			I45_toward_the_future
		}
		
		trigger = {
			custom_trigger_tooltip = {
				tooltip = cyranvar_open_path_tooltip
				has_country_flag = cyranvar_open_path
			}
			adm_power = 100
		}
		
		effect = {
			add_adm_power = -100
			random_owned_province = {
				limit = { trade_goods = cloth }
				add_permanent_province_modifier = {
					name = cyranvar_artisan
					duration = -1
				}
			}
			random_owned_province = {
				limit = { trade_goods = wool }
				add_permanent_province_modifier = {
					name = cyranvar_artisan
					duration = -1
				}
			}
			random_owned_province = {
				limit = { trade_goods = tropical_wood }
				add_permanent_province_modifier = {
					name = cyranvar_artisan
					duration = -1
				}
			}
			random_owned_province = {
				limit = { trade_goods = naval_supplies }
				add_permanent_province_modifier = {
					name = cyranvar_artisan
					duration = -1
				}
			}
			random_owned_province = {
				limit = { trade_goods = fur }
				add_permanent_province_modifier = {
					name = cyranvar_artisan
					duration = -1
				}
			}
			random_owned_province = {
				limit = { trade_goods = gems }
				add_permanent_province_modifier = {
					name = cyranvar_artisan
					duration = -1
				}
			}
			random_owned_province = {
				limit = { trade_goods = silk }
				add_permanent_province_modifier = {
					name = cyranvar_artisan
					duration = -1
				}
			}
			random_owned_province = {
				limit = { trade_goods = wine }
				add_permanent_province_modifier = {
					name = cyranvar_artisan
					duration = -1
				}
			}
			
		}
	}
	
	I45_centralize_money_printing = {
		icon = mission_rb_conquer_bengal
		ai = yes
		position = 6
		
		required_missions = {
			I45_develop_artisanat
		}
		
		provinces_to_highlight = {
			province_id = 3042
		}
		
		trigger = {
			owns = 3042
			adm_power = 100
		}
		
		effect = {
			add_adm_power = -100
			add_country_modifier = {
				name = cyranvar_centralize_money
				duration = 36500
			}
		}
	}
	
	I45_one_of_many = {
		icon = mission_settlers_north_america
		ai = yes
		position = 7
		
		required_missions = {
			I45_centralize_money_printing
		}
		
		trigger = {
			if = {
				limit = { ai = no }
				years_of_income = 2
			}
			else = {
				treasury = 400
			}
		}
		
		effect = {
			if = {
				limit = { ai = no }
				add_years_of_income = -2
			}
			else = {
				add_treasury = -400
			}
			add_country_modifier = {
				name = cyranvar_one_of_many
				duration = -1
			}
		}
	}
	
	I45_expert_artisan = {
		icon = mission_restore_trade_superiority
		ai = yes
		position = 8
		
		required_missions = {
			I45_one_of_many
			I45_economic_boom
		}
		
		trigger = {
			if = {
				limit = { ai = no }
				innovativeness = 20
				years_of_income = 1
			}
			splendor = 200
		}
		
		effect = {
			add_splendor = -200
			add_years_of_income = -1
			custom_tooltip = cyranvar_expert_artisan_tooltip
			hidden_effect = {
				every_province = {
					limit = { has_province_modifier = abundant_woods }
					add_province_triggered_modifier = abundant_woods_cyranvar
				}
			}
			hidden_effect = { set_country_flag = cyranvar_expert_artisan }
		}
	}
	
	I45_the_cosmopolitan_elf = {
		icon = mission_rb_weather_the_reformation
		ai = yes
		position = 9
		
		required_missions = {
			I45_expert_artisan
		}
		
		trigger = {
			OR = {
				AND = {
					adm = 6
					dip = 6
					mil = 6
				}
				AND = {
					adm_power = 500
					dip_power = 500
					mil_power = 500
				}
			}
		}
		
		effect = {
			if = {
				limit = { 
					NOT = { 
						adm = 6 
						mil = 6 
						dip = 6 
					}
				}
				add_adm_power = -500
				add_dip_power = -500
				add_mil_power = -500
			}
			add_prestige = 25
			add_country_modifier = {
				name = cyranvar_the_cosmopolitan_elf
				duration = -1
			}
		}
	}
	
}


cyranvar_5 = {
	slot = 5
	generic = no
	ai = yes
	has_country_shield = yes
	
	potential = {
		tag = I45
	}
	
	I45_internal_trade = {
		icon = mission_have_manufactories
		ai = yes
		position = 4
		
		required_missions = {
			I45_a_united_deepwoods
		}
		
		
		trigger = {
			if = {
				limit = { ai = no }
				country_has_center_of_trade_of_level = 3
				mercantilism = 50
			}
			else = {
				mercantilism = 25
			}
		}
		
		effect = {
			add_dip_power = 100
			add_mercantilism = 5
			every_owned_province = {
				limit = { province_has_center_of_trade_of_level = 2 superregion = deepwoods_superregion }
				add_base_production = 3
				add_base_tax = 1
			}
			every_owned_province = {
				limit = { OR = { province_has_center_of_trade_of_level = 1 } superregion = deepwoods_superregion }
				add_center_of_trade_level = 1
			}
		}
	}
	
	I45_a_protectionism_approach = {
		icon = mission_rb_colonise_spice_islands
		ai = yes
		position = 5
		
		required_missions = {
			I45_internal_trade
		}
		
		trigger = {
			if = {
				limit = { ai = no }
				calc_true_if = {
					all_owned_province = { country_has_center_of_trade_of_level = 3 }
					amount = 3
				}
				mercantilism = 75
			}
			else = {
				mercantilism = 50
			}
			years_of_income = 1
		}
		
		effect = {
			add_dip_power = 200
			add_mercantilism = 10
			add_years_of_income = -1
			every_owned_province = {
				limit = { OR = { province_has_center_of_trade_of_level = 2 province_has_center_of_trade_of_level = 1 } superregion = deepwoods_superregion }
				add_center_of_trade_level = 1
			}
		}
	}
}

